{
  "name": "Message",
  "fields": [
    {
      "fieldName": "message",
      "fieldType": "String",
      "fieldValidateRules": ["required"]
    },
    {
      "fieldName": "dateMessage",
      "fieldType": "ZonedDateTime",
      "fieldValidateRules": ["required"]
    }
  ],
  "relationships": [
    {
      "relationshipType": "one-to-one",
      "otherEntityName": "photo",
      "otherEntityRelationshipName": "message",
      "relationshipName": "photo",
      "otherEntityField": "id",
      "ownerSide": true
    },
    {
      "relationshipType": "many-to-one",
      "otherEntityName": "userAccount",
      "otherEntityRelationshipName": "message",
      "relationshipValidateRules": "required",
      "relationshipName": "receiver",
      "otherEntityField": "id"
    },
    {
      "relationshipType": "many-to-one",
      "otherEntityName": "userAccount",
      "otherEntityRelationshipName": "message",
      "relationshipValidateRules": "required",
      "relationshipName": "sender",
      "otherEntityField": "id"
    },
    {
      "relationshipType": "many-to-one",
      "otherEntityName": "advertisement",
      "otherEntityRelationshipName": "message",
      "relationshipName": "advertisement",
      "otherEntityField": "id"
    }
  ],
  "changelogDate": "20210311084157",
  "javadoc": "The message entity allows every\\ncustomer and deliverymen to\\ntalk with each others for deliveries\\nwhen a customer accepts a deliveryman's\\nquotation.\\n\\n@Authors : El kadiri Ibrahim, Fares Amal, Maurer Adrien, Meddah Mohamed",
  "entityTableName": "message",
  "dto": "mapstruct",
  "pagination": "pagination",
  "service": "serviceImpl",
  "jpaMetamodelFiltering": true,
  "fluentMethods": true,
  "readOnly": false,
  "embedded": false,
  "clientRootFolder": "",
  "applications": "*"
}
