{
  "name": "Quotation",
  "fields": [
    {
      "fieldName": "deliveryManPrice",
      "fieldType": "Float",
      "fieldValidateRules": ["required"]
    },
    {
      "fieldName": "creationDateQuotation",
      "fieldType": "ZonedDateTime",
      "fieldValidateRules": ["required"]
    }
  ],
  "relationships": [
    {
      "relationshipType": "many-to-one",
      "otherEntityName": "quotationStatus",
      "otherEntityRelationshipName": "quotation",
      "relationshipValidateRules": "required",
      "relationshipName": "status",
      "otherEntityField": "id"
    },
    {
      "relationshipType": "many-to-one",
      "otherEntityName": "userAccount",
      "otherEntityRelationshipName": "quotation",
      "relationshipValidateRules": "required",
      "relationshipName": "deliveryMan",
      "otherEntityField": "id"
    },
    {
      "relationshipType": "many-to-one",
      "otherEntityName": "advertisement",
      "otherEntityRelationshipName": "quotation",
      "relationshipValidateRules": "required",
      "relationshipName": "advertisement",
      "otherEntityField": "id"
    }
  ],
  "changelogDate": "20210311083657",
  "javadoc": "The quotation entity allows deliverers\\nto estimate the cost of delivery to the customer\\n@Authors : El kadiri Ibrahim, Fares Amal, Maurer Adrien, Meddah Mohamed",
  "entityTableName": "quotation",
  "dto": "mapstruct",
  "pagination": "pagination",
  "service": "serviceImpl",
  "jpaMetamodelFiltering": true,
  "fluentMethods": true,
  "readOnly": false,
  "embedded": false,
  "clientRootFolder": "",
  "applications": "*"
}
