id;name_company;number_siret_company;number_siren
1;Isle;Fantastic;connecting Personal Loan Account
2;payment Montserrat;backing up Rue;bypass withdrawal
3;Frozen;monitor teal Auto Loan Account;Handcrafted Executive matrix
4;content optical;Integrated;Research Small Corporate
5;enable;Steel Configuration Designer;system engine Australian Dollar
6;Wyoming invoice;card XML;Refined Fresh Towels Chilean Peso Unidades de fomento withdrawal
7;Handcrafted;Philippines;standardization tan deposit
8;China;District French Southern Territories;middleware next-generation
9;viral;platforms Grass-roots;HTTP
10;user;user;user
