id;photo;photo_content_type;photo_path
1;../fake-data/blob/hipster.png;image/png;ADP Mountain Metal
2;../fake-data/blob/hipster.png;image/png;user-facing harness haptic
3;../fake-data/blob/hipster.png;image/png;Chief Direct Security
4;../fake-data/blob/hipster.png;image/png;Sleek
5;../fake-data/blob/hipster.png;image/png;Steel Zloty
6;../fake-data/blob/hipster.png;image/png;Borders
7;../fake-data/blob/hipster.png;image/png;Security Mouse
8;../fake-data/blob/hipster.png;image/png;Square 1080p
9;../fake-data/blob/hipster.png;image/png;Toys
10;../fake-data/blob/hipster.png;image/png;bypassing Architect
